[gd_resource type="DynamicFont" load_steps=2 format=2]

[sub_resource type="DynamicFontData" id=1]
font_path = "res://Scripts/Godot Open Dialogue/fonts/adobe_source_san_pro_ttf/SourceSansPro-Regular.ttf"

[resource]
size = 25
font_data = SubResource( 1 )
