[gd_scene load_steps=3 format=2]

[ext_resource path="res://Assets/Fonts/text.tres" type="DynamicFont" id=1]
[ext_resource path="res://UI/Button/Button.gd" type="Script" id=2]

[node name="Button" type="Button"]
margin_right = 520.0
margin_bottom = 20.0
custom_fonts/font = ExtResource( 1 )
flat = true
script = ExtResource( 2 )
[connection signal="pressed" from="." to="." method="_on_Button_pressed"]
