[gd_scene load_steps=3 format=2]

[ext_resource path="res://Scripts/DialogManager/Message.tscn" type="PackedScene" id=1]
[ext_resource path="res://Scripts/DialogManager/DialogueManager.gd" type="Script" id=2]

[node name="DialogueManager" type="Node"]
script = ExtResource( 2 )

[node name="Message" parent="." instance=ExtResource( 1 )]

[node name="AutoContinueTimer" type="Timer" parent="."]
