{	
	"Template" : {
		"Name" : "Class_Template",
		"Description": "A template class",
		"Prerequisites" : { "Class" : null, "LVL" : 5, "Learned Skills" : [] },
	 	"Equip_Categories" : [ "Shortswords", "Shields", "Leather", "Cloth" ],
		"Stats_Increment": {
			"EXP"	:	{"Start" : 0, "Finish" : 50000},
			"HP"	:	{"Start" : 0, "Finish" : 225},
			"MP"	:	{"Start" : 0, "Finish" : 225},
			"ATK"	:	{"Start" : 0, "Finish" : 225},
			"DEF"	:	{"Start" : 0, "Finish" : 225},
			"MATK"	:	{"Start" : 0, "Finish" : 225},
			"MDEF"	:	{"Start" : 0, "Finish" : 225},
			"SPD"	:	{"Start" : 0, "Finish" : 225},
			"LCK"	:	{"Start" : 0, "Finish" : 225},
		},
		"Skills" : {
			"5" : ["Pound", "Thundershock", "Pepper Breath"],
		},
	},
}
