{	"Template" : {
		"Type" : "Consumable",
		"Name" : "Item_Template",
		"Description" : "Item_Description",
		"Weight" : 0.0,
		"Removable": true,
		"Icon_Path" : "res://icon.png",
		"Sprite_Path" :"res://icon.png",
		"Target" : "Self",
		"Effects": { 
			"HP"	:	50,
			"MP"	:	10
		}
	},
}
