{	
	"Template" : {
		"Name" : "Template Attack",
		"Description" : "The attacker uses all their Template Energy to hit the target",
		"Icon_Path" : "res://icon.png",
		"Type" : "Magic",
		"Cost" : {
			"MP" : 50,
		},
		"Target" : "Enemy",
		"From_Battle" : true,
		"From_Menu" : false,
		"Stats" : {
			"SPD" : 0,
			"Success_Rate" : 100,
			"Repeat" : 1,
			"TP_Gain" : 0,
			"Hit_Type" : "Magical Attack",
		},
		"Animation_Name" : "Skies Falling",
		"Message" : "/U[Name] uses *!",
		"Requirements" : {
			"Weapon_Type" : ["Relique"],
			"Armor_Type" : ["Holy"],
		},
		"Damage_Options": {
			"Type" : "HP Damage",
			"Element" : "Light",
			"Formula" : "/U[Stats['ATK']] * 4 - /T[Stat['Def']] * 2",
			"Variance" : 20,
			"Crits" : true,
		},
		"Effects" : {
			"States" : [{"Normal Attack" : 100}, { "Debuff" : ["DEF", 50, 5]}],
		},
	},
}
